…
# Load the example dataset and the tree file with cell type hierarchy

dataset <- readRDS("dev/test_data/count_data_small.rds")

dataset

# A tibble: 1,934,920 × 5
#   cell_type  symbol database    sample      count
#   <chr>      <fct>  <fct>       <fct>       <int>
# 1 epithelial TSPAN6 ENCSR822SUG ENCFF556AGI  1330
# 2 epithelial TSPAN6 ENCSR822SUG ENCFF106YFW  1378
# 3 epithelial TSPAN6 ENCSR000AAD ENCFF377UBC  1388
# 4 epithelial TSPAN6 ENCSR000AAD ENCFF193YHT  1216
# 5 epithelial TSPAN6 ENCSR118TVR ENCFF380AIN  2750
# 6 epithelial TSPAN6 ENCSR118TVR ENCFF129BNX  4444
# 7 epithelial TSPAN6 ENCSR373BDG ENCFF108PJF  2598
# 8 epithelial TSPAN6 ENCSR000COX ENCFF300LEY  2287
# 9 epithelial TSPAN6 ENCSR000CUN ENCFF374KZN  1571
#10 epithelial TSPAN6 ENCSR000AAL ENCFF826JBV  2883
# ℹ 1,934,910 more rows
# ℹ Use `print(n = ...)` to see more rows
…
